Emp_Codigo	Id_Negociacion	Tipo	Codigo_Cliente	Dia_Negociacion	Mes_Negociacion	Anio_Negociacion	Cod_Vendedor	Descuento_Negociado	Descuento_Realizado	Descuento_Status	Desc_Prev_Pedido	Descuento_Procesado_XSales	Pedido_Realizado
360	1103600000683	RANGO	000661286	11	2	2022	110	19.00	Si	Aprobado	No	Si	Si
360	1103600000684	RANGO	000900133	11	2	2022	110	19.00	Si	Aprobado	No	Si	Si
360	1203600001194	RANGO	000901174	11	2	2022	120	19.00	Si	Aprobado	Si	Si	Si
360	1203600001195	RANGO	000909107	11	2	2022	120	19.00	Si	Aprobado	Si	Si	Si
360	1303600000623	RANGO	600001684	11	2	2022	130	19.00	Si	Aprobado	Si	Si	Si
360	1603600000829	RANGO	000903212	11	2	2022	160	28.00	Si	Aprobado	No	Si	No
360	2603600001209	RANGO	000907190	11	2	2022	260	19.00	Si	Aprobado	Si	Si	Si
360	2603600001208	RANGO	000651168	11	2	2022	260	19.00	Si	Aprobado	No	Si	Si
360	2603600001207	RANGO	600000189	11	2	2022	260	19.00	Si	Aprobado	No	Si	Si
360	5203600000962	RANGO	600000528	11	2	2022	520	17.00	Si	Aprobado	No	Si	Si
360	6103600001570	RANGO	000657039	11	2	2022	610	19.00	Si	Aprobado	Si	Si	Si
360	6103600001568	RANGO	000660581	11	2	2022	610	19.00	Si	Aprobado	No	Si	No
360	6103600001572	RANGO	500708331	11	2	2022	610	19.00	Si	Aprobado	Si	Si	Si
360	6103600001569	RANGO	000713519	11	2	2022	610	19.00	Si	Aprobado	Si	Si	Si
360	6103600001573	RANGO	000919064	11	2	2022	610	19.00	Si	Aprobado	No	Si	Si
360	6103600001574	RANGO	600000170	11	2	2022	610	19.00	Si	Aprobado	Si	Si	Si
360	6103600001571	RANGO	000661547	11	2	2022	610	19.00	Si	Aprobado	No	Si	Si
360	7603600001568	RANGO	000723568	11	2	2022	760	19.00	Si	Aprobado	Si	Si	Si
360	7603600001569	RANGO	000650362	11	2	2022	760	19.00	Si	Aprobado	No	Si	Si
360	8603600002389	RANGO	400662302	11	2	2022	860	20.00	Si	Aprobado	Si	Si	Si
360	8603600002390	RANGO	000720187	11	2	2022	860	20.00	Si	Aprobado	Si	Si	Si
360	9603600001660	RANGO	000662724	11	2	2022	960	19.00	Si	Aprobado	Si	Si	Si
360	9603600001659	RANGO	400705666	11	2	2022	960	19.00	Si	Aprobado	Si	Si	Si
314	3163140000678	FUERA RANGO	000325298	11	2	2022	316	30.00	Si	Aprobado	No	Si	No
314	5203140000245	RANGO	000200632	11	2	2022	520	19.00	Si	Aprobado	Si	Si	Si
314	6003140000309	RANGO	000325107	11	2	2022	600	17.00	Si	Aprobado	No	Si	Si
314	8003140000393	RANGO	000323326	11	2	2022	800	20.00	Si	Aprobado	Si	Si	Si
314	8163140000040	RANGO	000776688	11	2	2022	816	20.00	Si	Aprobado	Si	Si	Si
314	9003140000655	RANGO	000761213	11	2	2022	900	19.00	Si	Aprobado	Si	Si	Si
314	9003140000654	FUERA RANGO	000761253	11	2	2022	900	30.00	Si	Aprobado	Si	Si	Si
314	9003140000656	RANGO	000326221	11	2	2022	900	20.00	Si	Aprobado	Si	Si	Si
162	2001620000432	FUERA RANGO	000581239	11	2	2022	200	21.00	Si	Aprobado	No	Si	Si
162	2501620000235	RANGO	000581353	11	2	2022	250	18.00	Si	Aprobado	No	Si	Si
162	3001620000274	RANGO	000803174	11	2	2022	300	18.00	Si	Aprobado	Si	Si	Si
162	6001620000261	RANGO	100602302	11	2	2022	600	18.00	Si	Aprobado	Si	Si	Si
325	1003250000878	RANGO	000228907	11	2	2022	100	19.00	Si	Aprobado	No	Si	Si
325	3003250000184	RANGO	000500022	11	2	2022	300	19.00	Si	Aprobado	No	Si	Si
325	3503250000625	RANGO	000250031	11	2	2022	350	19.00	Si	Aprobado	No	Si	Si
325	3503250000626	FUERA RANGO	000250485	11	2	2022	350	22.00	Si	Aprobado	No	Si	Si
325	4003250000490	RANGO	000220224	11	2	2022	400	19.00	Si	Aprobado	Si	Si	Si
325	4003250000489	RANGO	000227101	11	2	2022	400	19.00	Si	Aprobado	Si	Si	Si
325	6003250000453	RANGO	000227448	11	2	2022	600	19.00	Si	Aprobado	Si	Si	Si
325	9503250000555	RANGO	001000231	11	2	2022	950	19.00	Si	Aprobado	No	Si	No
111	1001110004915	RANGO	100002176	11	2	2022	100	19.00	Si	Aprobado	No	Si	No
111	1001110004916	RANGO	000925191	11	2	2022	100	19.00	Si	Aprobado	No	Si	No
111	1001110004917	RANGO	000920062	11	2	2022	100	19.00	Si	Aprobado	No	Si	No
111	1001110004918	RANGO	000920145	11	2	2022	100	19.00	Si	Aprobado	Si	Si	Si
111	1001110004919	RANGO	000920020	11	2	2022	100	19.00	Si	Aprobado	No	Si	Si
111	1001110004921	RANGO	000925041	11	2	2022	100	19.00	Si	Aprobado	Si	Si	Si
111	1001110004922	RANGO	000000697	11	2	2022	100	21.00	Si	Aprobado	No	Si	Si
111	1001110004923	RANGO	000043252	11	2	2022	100	19.00	Si	Aprobado	Si	Si	Si
111	1501110007390	RANGO	100001873	11	2	2022	150	19.00	Si	Aprobado	Si	Si	Si
111	1501110007391	RANGO	000041005	11	2	2022	150	19.00	Si	Aprobado	Si	Si	Si
111	1501110007392	RANGO	000040390	11	2	2022	150	19.00	Si	Aprobado	No	Si	No
111	1501110007393	RANGO	000049520	11	2	2022	150	19.00	Si	Aprobado	No	Si	No
111	1501110007394	RANGO	000040263	11	2	2022	150	19.00	Si	Aprobado	No	Si	No
111	1501110007395	RANGO	100001416	11	2	2022	150	19.00	Si	Aprobado	Si	Si	Si
111	1501110007396	RANGO	000047038	11	2	2022	150	19.00	Si	Aprobado	No	Si	No
111	1501110007397	RANGO	000921063	11	2	2022	150	19.00	Si	Aprobado	Si	Si	Si
111	1501110007398	RANGO	000931044	11	2	2022	150	19.00	Si	Aprobado	Si	Si	Si
111	1501110007399	RANGO	100001363	11	2	2022	150	19.00	Si	Aprobado	No	Si	No
111	1501110007400	RANGO	000040058	11	2	2022	150	19.00	Si	Aprobado	No	Si	No
111	1501110007401	RANGO	000049517	11	2	2022	150	19.00	Si	Aprobado	No	Si	No
111	1501110007402	RANGO	000040169	11	2	2022	150	19.00	Si	Aprobado	No	Si	No
111	1501110007403	RANGO	000047051	11	2	2022	150	19.00	Si	Aprobado	Si	Si	Si
111	1501110007404	RANGO	000040940	11	2	2022	150	19.00	Si	Aprobado	No	Si	No
111	1501110007405	RANGO	000000015	11	2	2022	150	19.00	Si	Aprobado	Si	Si	Si
111	1501110007406	RANGO	000921071	11	2	2022	150	19.00	Si	Aprobado	Si	Si	Si
111	1501110007407	RANGO	000921113	11	2	2022	150	19.00	Si	Aprobado	No	Si	Si
111	1501110007408	RANGO	000921016	11	2	2022	150	19.00	Si	Aprobado	No	Si	No
111	1501110007409	RANGO	000040706	11	2	2022	150	19.00	Si	Aprobado	No	Si	No
111	1501110007410	RANGO	100001368	11	2	2022	150	19.00	Si	Aprobado	No	Si	No
111	1501110007411	RANGO	000040977	11	2	2022	150	19.00	Si	Aprobado	No	Si	No
111	1501110007412	RANGO	000000092	11	2	2022	150	19.00	Si	Aprobado	No	Si	No
111	1501110007413	RANGO	000040432	11	2	2022	150	19.00	Si	Aprobado	Si	Si	Si
111	1501110007414	RANGO	000921069	11	2	2022	150	19.00	Si	Aprobado	No	Si	Si
111	1501110007415	RANGO	000000779	11	2	2022	150	19.00	Si	Aprobado	No	Si	No
111	1501110007416	RANGO	100002455	11	2	2022	150	19.00	Si	Aprobado	No	Si	No
111	1501110007417	RANGO	100002443	11	2	2022	150	19.00	Si	Aprobado	Si	Si	Si
111	2001110004959	RANGO	000000264	11	2	2022	200	23.00	Si	Aprobado	Si	Si	Si
111	2001110004960	RANGO	000040206	11	2	2022	200	20.00	Si	Aprobado	Si	Si	Si
111	2001110004961	RANGO	000042009	11	2	2022	200	19.00	Si	Aprobado	No	Si	Si
111	2001110004962	RANGO	000043281	11	2	2022	200	19.00	Si	Aprobado	Si	Si	Si
111	2001110004963	RANGO	100002535	11	2	2022	200	19.00	Si	Aprobado	No	Si	Si
111	2001110004964	RANGO	100002570	11	2	2022	200	19.00	Si	Aprobado	Si	Si	Si
111	2001110004965	RANGO	000923072	11	2	2022	200	19.00	Si	Aprobado	Si	Si	Si
111	2001110004966	RANGO	100002628	11	2	2022	200	20.00	Si	Aprobado	Si	Si	Si
111	2001110004967	RANGO	000047009	11	2	2022	200	19.00	Si	Aprobado	Si	Si	Si
111	2001110004968	RANGO	000000650	11	2	2022	200	23.00	Si	Aprobado	Si	Si	Si
111	2001110004969	FUERA RANGO	000920002	11	2	2022	200	23.00	Si	Aprobado	Si	Si	Si
111	3001110006801	RANGO	000044088	11	2	2022	300	20.00	Si	Aprobado	Si	Si	Si
111	3001110006802	RANGO	000044266	11	2	2022	300	20.00	Si	Aprobado	Si	Si	Si
111	3001110006803	RANGO	000924012	11	2	2022	300	20.00	Si	Aprobado	Si	Si	Si
111	3001110006804	RANGO	100002721	11	2	2022	300	20.00	Si	Aprobado	Si	Si	Si
111	3001110006805	RANGO	000924147	11	2	2022	300	20.00	Si	Aprobado	Si	Si	Si
111	3001110006806	RANGO	000044218	11	2	2022	300	20.00	Si	Aprobado	Si	Si	Si
111	3001110006807	RANGO	000044006	11	2	2022	300	20.00	Si	Aprobado	Si	Si	Si
111	3001110006808	RANGO	000044002	11	2	2022	300	20.00	Si	Aprobado	No	Si	No
111	3001110006809	RANGO	000040162	11	2	2022	300	20.00	Si	Aprobado	No	Si	No
111	3001110006810	RANGO	000044111	11	2	2022	300	20.00	Si	Aprobado	Si	Si	Si
111	3001110006811	RANGO	000040619	11	2	2022	300	20.00	Si	Aprobado	No	Si	No
111	3001110006812	RANGO	000040368	11	2	2022	300	20.00	Si	Aprobado	Si	Si	Si
111	3001110006813	RANGO	000040786	11	2	2022	300	19.00	Si	Aprobado	No	Si	No
111	3001110006814	RANGO	000924021	11	2	2022	300	20.00	Si	Aprobado	Si	Si	Si
111	4001110007539	RANGO	000040195	11	2	2022	400	19.00	Si	Aprobado	No	Si	No
111	4001110007540	RANGO	100001838	11	2	2022	400	19.00	Si	Aprobado	Si	Si	Si
111	4001110007541	RANGO	000040391	11	2	2022	400	19.00	Si	Aprobado	No	Si	No
111	4001110007542	RANGO	100002648	11	2	2022	400	19.00	Si	Aprobado	No	Si	No
111	4001110007543	RANGO	000042251	11	2	2022	400	19.00	Si	Aprobado	No	Si	No
111	4001110007544	RANGO	100001389	11	2	2022	400	19.00	Si	Aprobado	No	Si	No
111	4001110007545	RANGO	000040825	11	2	2022	400	19.00	Si	Aprobado	Si	Si	Si
111	4001110007546	RANGO	000040355	11	2	2022	400	19.00	Si	Aprobado	Si	Si	Si
111	4001110007547	RANGO	000925111	11	2	2022	400	19.00	Si	Aprobado	Si	Si	Si
111	4001110007548	RANGO	000925083	11	2	2022	400	19.00	Si	Aprobado	Si	Si	Si
111	4001110007549	RANGO	000040091	11	2	2022	400	19.00	Si	Aprobado	No	Si	No
111	4001110007550	RANGO	000040237	11	2	2022	400	19.00	Si	Aprobado	Si	Si	Si
111	4001110007551	RANGO	000925071	11	2	2022	400	19.00	Si	Aprobado	Si	Si	Si
111	4001110007552	RANGO	100001468	11	2	2022	400	19.00	Si	Aprobado	No	Si	No
111	4001110007553	RANGO	000045111	11	2	2022	400	19.00	Si	Aprobado	No	Si	No
111	4001110007554	RANGO	000925153	11	2	2022	400	19.00	Si	Aprobado	Si	Si	Si
111	4001110007555	RANGO	000040867	11	2	2022	400	19.00	Si	Aprobado	Si	Si	Si
111	4001110007556	RANGO	100002622	11	2	2022	400	19.00	Si	Aprobado	No	Si	No
111	4001110007557	RANGO	000925163	11	2	2022	400	19.00	Si	Aprobado	No	Si	No
111	4001110007558	RANGO	000040108	11	2	2022	400	19.00	Si	Aprobado	No	Si	No
111	4001110007559	RANGO	100002061	11	2	2022	400	19.00	Si	Aprobado	No	Si	No
111	4001110007560	RANGO	000045108	11	2	2022	400	19.00	Si	Aprobado	Si	Si	Si
111	4001110007561	RANGO	100002406	11	2	2022	400	19.00	Si	Aprobado	No	Si	No
111	4001110007562	RANGO	000925038	11	2	2022	400	19.00	Si	Aprobado	No	Si	No
111	4001110007563	RANGO	000040016	11	2	2022	400	19.00	Si	Aprobado	Si	Si	Si
111	4001110007564	RANGO	000925073	11	2	2022	400	19.00	Si	Aprobado	Si	Si	Si
111	4001110007565	RANGO	000040086	11	2	2022	400	19.00	Si	Aprobado	Si	Si	Si
111	4001110007566	RANGO	000040088	11	2	2022	400	19.00	Si	Aprobado	Si	Si	Si
111	4001110007567	RANGO	000040824	11	2	2022	400	19.00	Si	Aprobado	No	Si	No
111	4001110007568	RANGO	000925006	11	2	2022	400	19.00	Si	Aprobado	No	Si	No
111	4001110007569	RANGO	000925127	11	2	2022	400	19.00	Si	Aprobado	Si	Si	Si
111	4001110007570	RANGO	000000426	11	2	2022	400	19.00	Si	Aprobado	No	Si	No
111	4001110007571	RANGO	100001748	11	2	2022	400	19.00	Si	Aprobado	Si	Si	Si
111	4001110007572	RANGO	000000390	11	2	2022	400	19.00	Si	Aprobado	No	Si	No
111	4001110007573	RANGO	000925048	11	2	2022	400	19.00	Si	Aprobado	Si	Si	Si
111	4001110007574	RANGO	000040137	11	2	2022	400	19.00	Si	Aprobado	No	Si	No
111	4001110007575	RANGO	000925069	11	2	2022	400	19.00	Si	Aprobado	Si	Si	Si
111	4001110007576	RANGO	000925068	11	2	2022	400	19.00	Si	Aprobado	No	Si	No
111	4001110007577	RANGO	000925156	11	2	2022	400	19.00	Si	Aprobado	Si	Si	Si
111	4001110007578	RANGO	100001864	11	2	2022	400	19.00	Si	Aprobado	Si	Si	Si
111	4001110007579	RANGO	000040828	11	2	2022	400	19.00	Si	Aprobado	No	Si	No
111	4001110007580	RANGO	000925185	11	2	2022	400	19.00	Si	Aprobado	No	Si	No
111	4001110007581	RANGO	000925143	11	2	2022	400	19.00	Si	Aprobado	Si	Si	Si
111	4001110007582	RANGO	000040436	11	2	2022	400	19.00	Si	Aprobado	No	Si	No
111	4001110007583	RANGO	000040049	11	2	2022	400	19.00	Si	Aprobado	Si	Si	Si
111	5001110003128	RANGO	000926148	11	2	2022	500	19.00	Si	Aprobado	No	Si	No
111	5001110003129	RANGO	000040506	11	2	2022	500	19.00	Si	Aprobado	Si	Si	Si
111	5001110003130	RANGO	000046041	11	2	2022	500	23.00	Si	Aprobado	No	Si	Si
111	5001110003131	RANGO	000046297	11	2	2022	500	19.00	Si	Aprobado	Si	Si	Si
111	5001110003132	RANGO	100001506	11	2	2022	500	19.00	Si	Aprobado	No	Si	No
111	5001110003133	RANGO	000926059	11	2	2022	500	19.00	Si	Aprobado	Si	Si	Si
111	5001110003134	RANGO	000040504	11	2	2022	500	19.00	Si	Aprobado	No	Si	No
111	5001110003135	RANGO	000046076	11	2	2022	500	19.00	Si	Aprobado	No	Si	No
111	6001110010351	RANGO	100001354	11	2	2022	600	20.00	Si	Aprobado	Si	Si	Si
111	6001110010352	RANGO	000921101	11	2	2022	600	20.00	Si	Aprobado	No	Si	Si
111	6001110010353	RANGO	000928116	11	2	2022	600	20.00	Si	Aprobado	No	Si	Si
111	6001110010354	RANGO	100001509	11	2	2022	600	20.00	Si	Aprobado	No	Si	No
111	6001110010355	RANGO	100002661	11	2	2022	600	20.00	Si	Aprobado	Si	Si	Si
111	6001110010356	RANGO	000040224	11	2	2022	600	20.00	Si	Aprobado	No	Si	No
111	6001110010357	RANGO	000047167	11	2	2022	600	20.00	Si	Aprobado	No	Si	No
111	6001110010358	RANGO	000047163	11	2	2022	600	22.00	Si	Aprobado	Si	Si	Si
111	6001110010359	RANGO	000040261	11	2	2022	600	20.00	Si	Aprobado	No	Si	Si
111	6001110010360	RANGO	100002416	11	2	2022	600	20.00	Si	Aprobado	Si	Si	Si
111	6001110010361	RANGO	000921085	11	2	2022	600	20.00	Si	Aprobado	Si	Si	Si
111	6001110010362	RANGO	000923051	11	2	2022	600	20.00	Si	Aprobado	Si	Si	Si
111	6001110010363	RANGO	000921091	11	2	2022	600	19.00	Si	Aprobado	No	Si	Si
111	6001110010364	RANGO	000040192	11	2	2022	600	22.00	Si	Aprobado	No	Si	Si
111	6001110010365	RANGO	000040398	11	2	2022	600	20.00	Si	Aprobado	No	Si	Si
111	6001110010366	RANGO	100001956	11	2	2022	600	20.00	Si	Aprobado	Si	Si	Si
111	6001110010367	RANGO	000047273	11	2	2022	600	20.00	Si	Aprobado	No	Si	Si
111	6001110010368	RANGO	000921102	11	2	2022	600	20.00	Si	Aprobado	No	Si	Si
111	6001110010369	RANGO	000923029	11	2	2022	600	22.00	Si	Aprobado	Si	Si	Si
111	7001110008970	RANGO	000040182	11	2	2022	700	19.00	Si	Aprobado	No	Si	No
111	7001110008971	RANGO	000930108	11	2	2022	700	23.00	Si	Aprobado	Si	Si	Si
111	7001110008972	RANGO	000044012	11	2	2022	700	23.00	Si	Aprobado	Si	Si	Si
111	7001110008973	RANGO	000930065	11	2	2022	700	23.00	Si	Aprobado	No	Si	No
111	7001110008974	RANGO	100001424	11	2	2022	700	23.00	Si	Aprobado	Si	Si	Si
111	7001110008975	RANGO	000930075	11	2	2022	700	19.00	Si	Aprobado	No	Si	No
111	7001110008976	RANGO	100002740	11	2	2022	700	23.00	Si	Aprobado	Si	Si	Si
111	7001110008977	RANGO	000930088	11	2	2022	700	23.00	Si	Aprobado	No	Si	No
111	7001110008978	RANGO	000930080	11	2	2022	700	23.00	Si	Aprobado	No	Si	No
111	7001110008979	RANGO	000048133	11	2	2022	700	23.00	Si	Aprobado	No	Si	No
111	7001110008980	RANGO	000048186	11	2	2022	700	23.00	Si	Aprobado	No	Si	Si
111	7001110008981	RANGO	000040348	11	2	2022	700	23.00	Si	Aprobado	Si	Si	Si
111	7001110008982	RANGO	000040009	11	2	2022	700	23.00	Si	Aprobado	No	Si	No
111	7001110008983	RANGO	000040143	11	2	2022	700	23.00	Si	Aprobado	No	Si	No
111	7001110008984	RANGO	000040796	11	2	2022	700	23.00	Si	Aprobado	Si	Si	Si
111	7001110008985	RANGO	000048169	11	2	2022	700	19.00	Si	Aprobado	No	Si	No
323	1303230000476	RANGO	000902104	11	2	2022	130	18.00	Si	Aprobado	Si	Si	Si
323	1303230000477	RANGO	000800140	11	2	2022	130	18.00	Si	Aprobado	No	Si	Si
323	2103230000743	RANGO	000904026	11	2	2022	210	19.00	Si	Aprobado	No	Si	Si
323	2503230000729	FUERA RANGO	200004155	11	2	2022	250	26.00	Si	Aprobado	No	Si	No
323	3103230000758	RANGO	300000474	11	2	2022	310	18.00	Si	Aprobado	No	Si	Si
323	3103230000759	RANGO	000001304	11	2	2022	310	18.00	Si	Aprobado	No	Si	Si
323	3203230000140	RANGO	000756168	11	2	2022	320	18.00	Si	Aprobado	Si	Si	Si
323	3203230000141	RANGO	000755289	11	2	2022	320	18.00	Si	Aprobado	Si	Si	Si
323	5103230000200	RANGO	000755060	11	2	2022	510	18.00	Si	Aprobado	No	Si	Si
323	5203230000756	RANGO	000002277	11	2	2022	520	18.00	Si	Aprobado	Si	Si	Si
323	5203230000757	RANGO	000906098	11	2	2022	520	18.00	Si	Aprobado	Si	Si	Si
323	5203230000758	RANGO	000917103	11	2	2022	520	18.00	Si	Aprobado	Si	Si	Si
323	5203230000755	RANGO	000786080	11	2	2022	520	18.00	Si	Aprobado	Si	Si	Si
323	6003230000303	RANGO	000925094	11	2	2022	600	20.00	Si	Aprobado	Si	Si	Si
323	6003230000302	FUERA RANGO	000755542	11	2	2022	600	21.00	Si	Aprobado	Si	Si	Si
323	6503230000357	RANGO	200004465	11	2	2022	650	18.00	Si	Aprobado	Si	Si	Si
323	7103230000293	RANGO	300003826	11	2	2022	710	18.00	Si	Aprobado	Si	Si	Si
323	7103230000294	RANGO	200761611	11	2	2022	710	18.00	Si	Aprobado	Si	Si	Si
323	7203230000128	RANGO	300004813	11	2	2022	720	18.00	Si	Aprobado	No	Si	Si
323	8103230000068	RANGO	000781507	11	2	2022	810	15.00	Si	Aprobado	No	Si	Si
323	8503230000223	RANGO	000755307	11	2	2022	850	18.00	Si	Aprobado	Si	Si	Si
323	8503230000224	RANGO	000933118	11	2	2022	850	18.00	Si	Aprobado	Si	Si	Si
323	9003230000344	RANGO	000000328	11	2	2022	900	18.00	Si	Aprobado	No	Si	Si
323	9203230001314	RANGO	200003730	11	2	2022	920	18.00	Si	Aprobado	Si	Si	Si
323	9203230001313	RANGO	000311568	11	2	2022	920	18.00	Si	Aprobado	Si	Si	Si
323	9303230000671	RANGO	000936123	11	2	2022	930	19.00	Si	Aprobado	Si	Si	Si
323	9303230000673	RANGO	000936037	11	2	2022	930	18.00	Si	Aprobado	Si	Si	Si
323	9303230000672	RANGO	000772353	11	2	2022	930	18.00	Si	Aprobado	Si	Si	Si
261	1002610000161	RANGO	100574757	11	2	2022	100	18.00	Si	Aprobado	No	Si	Si
261	2002610000082	RANGO	000803153	11	2	2022	200	18.00	Si	Aprobado	Si	Si	Si
261	4002610000146	RANGO	000807055	11	2	2022	400	20.00	Si	Aprobado	Si	Si	Si
261	4752610000314	RANGO	000809118	11	2	2022	475	18.00	Si	Aprobado	No	Si	Si
261	7002610000174	RANGO	000646376	11	2	2022	700	18.00	Si	Aprobado	Si	Si	Si
261	7002610000173	RANGO	200580795	11	2	2022	700	18.00	Si	Aprobado	No	Si	Si
215	1002150000389	RANGO	000237004	11	2	2022	100	19.00	Si	Aprobado	No	Si	Si
215	3502150000213	RANGO	000000082	11	2	2022	350	19.00	Si	Aprobado	No	Si	No
215	3502150000214	RANGO	000909180	11	2	2022	350	19.00	Si	Aprobado	No	Si	Si
215	4002150000500	RANGO	000906130	11	2	2022	400	21.00	Si	Aprobado	Si	Si	Si
215	4002150000501	RANGO	000906168	11	2	2022	400	19.00	Si	Aprobado	Si	Si	Si
215	9002150000350	RANGO	000001129	11	2	2022	900	20.00	Si	Aprobado	No	Si	Si
215	9502150000255	RANGO	000231176	11	2	2022	950	19.00	Si	Aprobado	Si	Si	Si
247	3002470000407	RANGO	000444886	11	2	2022	300	19.00	Si	Aprobado	Si	Si	Si
247	5002470000545	RANGO	000441580	11	2	2022	500	19.00	Si	Aprobado	Si	Si	Si
247	5502470000597	RANGO	300450683	11	2	2022	550	19.00	Si	Aprobado	Si	Si	Si
247	7502470001785	RANGO	000802184	11	2	2022	750	19.00	Si	Aprobado	No	Si	Si
247	7502470001786	RANGO	300449489	11	2	2022	750	17.00	Si	Aprobado	No	Si	Si
247	7502470001787	RANGO	300449490	11	2	2022	750	19.00	Si	Aprobado	Si	Si	Si
247	7502470001788	RANGO	300449495	11	2	2022	750	19.00	Si	Aprobado	No	Si	Si
247	8502470000563	RANGO	000800123	11	2	2022	850	21.00	Si	Aprobado	No	Si	No
210	1202100000993	RANGO	000673912	11	2	2022	120	19.00	Si	Aprobado	Si	Si	Si
210	1202100000995	RANGO	000675029	11	2	2022	120	20.00	Si	Aprobado	Si	Si	Si
210	1202100000994	RANGO	000673505	11	2	2022	120	19.00	Si	Aprobado	Si	Si	Si
210	1202100000992	RANGO	000675293	11	2	2022	120	17.00	Si	Aprobado	No	Si	Si
210	1302100000935	RANGO	000921140	11	2	2022	130	19.00	Si	Aprobado	No	Si	Si
210	1302100000934	RANGO	000672136	11	2	2022	130	20.00	Si	Aprobado	Si	Si	Si
210	1602100001876	RANGO	000671171	11	2	2022	160	15.00	Si	Aprobado	Si	Si	Si
210	1602100001874	RANGO	000671950	11	2	2022	160	19.00	Si	Aprobado	Si	Si	Si
210	1602100001872	RANGO	000670762	11	2	2022	160	21.00	Si	Aprobado	Si	Si	Si
210	1602100001873	RANGO	000670763	11	2	2022	160	22.00	Si	Aprobado	Si	Si	Si
210	1602100001875	RANGO	000920274	11	2	2022	160	20.00	Si	Aprobado	Si	Si	Si
210	1802100000269	RANGO	000676392	11	2	2022	180	18.00	Si	Aprobado	No	Si	Si
210	2002100000298	RANGO	000677008	11	2	2022	200	19.00	Si	Aprobado	No	Si	Si
210	2002100000297	RANGO	000008025	11	2	2022	200	19.00	Si	Aprobado	No	Si	Si
210	2002100000296	RANGO	000928228	11	2	2022	200	19.00	Si	Aprobado	No	Si	Si
373	3503730000724	RANGO	700101158	11	2	2022	350	19.00	Si	Aprobado	Si	Si	Si
373	4003730001825	RANGO	800106507	11	2	2022	400	19.00	Si	Aprobado	No	Si	Si
373	5003730001090	RANGO	000926024	11	2	2022	500	19.00	Si	Aprobado	No	Si	Si
373	6503730002645	RANGO	800105979	11	2	2022	650	20.00	Si	Aprobado	Si	Si	Si
373	7003730001529	RANGO	800106666	11	2	2022	700	19.00	Si	Aprobado	No	Si	No
373	7003730001528	RANGO	000089263	11	2	2022	700	19.00	Si	Aprobado	Si	Si	Si
373	7003730001527	RANGO	000089877	11	2	2022	700	19.00	Si	Aprobado	Si	Si	Si
373	7003730001531	RANGO	800101547	11	2	2022	700	19.00	Si	Aprobado	Si	Si	Si
373	7003730001530	RANGO	000082509	11	2	2022	700	19.00	Si	Aprobado	No	Si	No
517	6505170000755	RANGO	200817138	11	2	2022	650	19.00	Si	Aprobado	Si	Si	Si
517	8505170000439	RANGO	000810119	11	2	2022	850	19.00	Si	Aprobado	Si	Si	Si
517	8505170000438	RANGO	200817726	11	2	2022	850	19.00	Si	Aprobado	Si	Si	Si
517	8505170000437	RANGO	000814428	11	2	2022	850	19.00	Si	Aprobado	Si	Si	Si
517	8505170000441	RANGO	000914021	11	2	2022	850	19.00	Si	Aprobado	Si	Si	Si
517	8505170000436	RANGO	000810131	11	2	2022	850	19.00	Si	Aprobado	Si	Si	Si
517	8505170000440	RANGO	000914047	11	2	2022	850	19.00	Si	Aprobado	Si	Si	Si
517	9505170000617	RANGO	000111463	11	2	2022	950	19.00	Si	Aprobado	No	Si	Si
234	2502340000586	RANGO	600405754	11	2	2022	250	19.00	Si	Aprobado	Si	Si	Si
234	2502340000587	RANGO	600405932	11	2	2022	250	1.00	Si	Aprobado	Si	Si	Si
234	3002340000234	RANGO	600406127	11	2	2022	300	19.00	Si	Aprobado	No	Si	No
234	3002340000235	RANGO	000372173	11	2	2022	300	19.00	Si	Aprobado	No	Si	No
234	6002340000564	RANGO	000927100	11	2	2022	600	19.00	Si	Aprobado	Si	Si	Si
234	9002340002087	RANGO	000401643	11	2	2022	900	19.00	Si	Aprobado	Si	Si	Si
234	9002340002088	RANGO	000402037	11	2	2022	900	21.00	Si	Aprobado	Si	Si	Si
234	9002340002084	FUERA RANGO	600405791	11	2	2022	900	30.00	Si	Aprobado	No	Si	No
234	9002340002086	FUERA RANGO	600406882	11	2	2022	900	30.00	Si	Aprobado	No	Si	No
234	9002340002085	FUERA RANGO	000373304	11	2	2022	900	30.00	Si	Aprobado	No	Si	No
234	9502340001013	RANGO	600406423	11	2	2022	950	19.00	Si	Aprobado	No	Si	No
234	9502340001012	RANGO	600404372	11	2	2022	950	19.00	Si	Aprobado	No	Si	No
234	9502340001011	FUERA RANGO	000928099	11	2	2022	950	30.00	Si	Aprobado	No	Si	No
324	1013240001312	RANGO	000500010	11	2	2022	101	19.00	Si	Aprobado	No	Si	Si
324	1013240001309	RANGO	000500139	11	2	2022	101	19.00	Si	Aprobado	No	Si	Si
324	1013240001307	RANGO	000692018	11	2	2022	101	19.00	Si	Aprobado	No	Si	Si
324	1013240001313	RANGO	000743658	11	2	2022	101	19.00	Si	Aprobado	No	Si	Si
324	1013240001308	RANGO	000950516	11	2	2022	101	19.00	Si	Aprobado	No	Si	Si
324	1013240001310	RANGO	000001145	11	2	2022	101	19.00	Si	Aprobado	No	Si	Si
324	1013240001311	RANGO	000692012	11	2	2022	101	19.00	Si	Aprobado	No	Si	Si
324	1013240001306	RANGO	000500154	11	2	2022	101	19.00	Si	Aprobado	No	Si	Si
324	1013240001305	RANGO	000802186	11	2	2022	101	19.00	Si	Aprobado	No	Si	Si
324	1023240001306	RANGO	000501060	11	2	2022	102	20.00	Si	Aprobado	No	Si	Si
324	1023240001303	RANGO	000690189	11	2	2022	102	19.00	Si	Aprobado	No	Si	Si
324	1023240001304	RANGO	000691329	11	2	2022	102	19.00	Si	Aprobado	No	Si	Si
324	1023240001305	RANGO	000501133	11	2	2022	102	19.00	Si	Aprobado	No	Si	Si
324	1033240001650	RANGO	000692044	11	2	2022	103	19.00	Si	Aprobado	No	Si	Si
324	1033240001651	RANGO	000745279	11	2	2022	103	19.00	Si	Aprobado	No	Si	Si
324	1043240001166	RANGO	000733079	11	2	2022	104	19.00	Si	Aprobado	No	Si	Si
324	1043240001167	RANGO	000503053	11	2	2022	104	19.00	Si	Aprobado	No	Si	Si
324	1053240000988	RANGO	000504012	11	2	2022	105	21.00	Si	Aprobado	No	Si	Si
324	1053240000987	RANGO	000504239	11	2	2022	105	19.00	Si	Aprobado	No	Si	Si
324	1073240001405	RANGO	000745022	11	2	2022	107	19.00	Si	Aprobado	No	Si	Si
324	1073240001407	RANGO	000506186	11	2	2022	107	19.00	Si	Aprobado	No	Si	Si
324	1073240001406	RANGO	000681732	11	2	2022	107	19.00	Si	Aprobado	No	Si	Si
324	1073240001408	RANGO	000745139	11	2	2022	107	19.00	Si	Aprobado	No	Si	Si
324	1083240000658	RANGO	000512016	11	2	2022	108	19.00	Si	Aprobado	Si	Si	Si
324	1083240000659	RANGO	000507199	11	2	2022	108	19.00	Si	Aprobado	No	Si	Si
324	1093240002788	RANGO	000508164	11	2	2022	109	19.00	Si	Aprobado	No	Si	Si
324	1093240002790	RANGO	000693757	11	2	2022	109	19.00	Si	Aprobado	No	Si	Si
324	1093240002787	RANGO	000508176	11	2	2022	109	19.00	Si	Aprobado	No	Si	Si
324	1093240002786	RANGO	000508184	11	2	2022	109	19.00	Si	Aprobado	No	Si	Si
324	1093240002789	RANGO	000508215	11	2	2022	109	19.00	Si	Aprobado	No	Si	Si
324	1153240000519	RANGO	000802671	11	2	2022	115	19.00	Si	Aprobado	No	Si	Si
324	1153240000517	RANGO	000740067	11	2	2022	115	19.00	Si	Aprobado	Si	Si	Si
324	1153240000518	RANGO	000509258	11	2	2022	115	19.00	Si	Aprobado	Si	Si	Si
324	1153240000515	RANGO	000694275	11	2	2022	115	19.00	Si	Aprobado	No	Si	Si
324	1153240000512	RANGO	000740055	11	2	2022	115	19.00	Si	Aprobado	No	Si	Si
324	1153240000513	RANGO	000509184	11	2	2022	115	19.00	Si	Aprobado	No	Si	Si
324	1153240000520	RANGO	000694274	11	2	2022	115	19.00	Si	Aprobado	No	Si	Si
324	1153240000514	RANGO	000740249	11	2	2022	115	19.00	Si	Aprobado	No	Si	Si
324	1153240000516	RANGO	000736772	11	2	2022	115	19.00	Si	Aprobado	No	Si	Si
324	1173240000657	RANGO	000737315	11	2	2022	117	16.00	Si	Aprobado	No	Si	Si
324	1253240001217	RANGO	000733565	11	2	2022	125	19.00	Si	Aprobado	No	Si	Si
324	1253240001219	RANGO	000909146	11	2	2022	125	19.00	Si	Aprobado	No	Si	Si
324	1253240001218	RANGO	000950436	11	2	2022	125	19.00	Si	Aprobado	No	Si	Si
324	1253240001215	RANGO	000731475	11	2	2022	125	19.00	Si	Aprobado	Si	Si	Si
324	1253240001216	RANGO	000733701	11	2	2022	125	19.00	Si	Aprobado	No	Si	Si
324	1323240001644	RANGO	000737536	11	2	2022	132	19.00	Si	Aprobado	No	Si	Si
324	1503240000556	RANGO	000742319	11	2	2022	150	19.00	Si	Aprobado	No	Si	Si
324	1553240000720	RANGO	000518034	11	2	2022	155	20.00	Si	Aprobado	Si	Si	Si
324	1553240000721	RANGO	000739818	11	2	2022	155	20.00	Si	Aprobado	Si	Si	Si
324	1553240000717	FUERA RANGO	000518047	11	2	2022	155	24.00	Si	Aprobado	No	Si	No
324	1553240000719	RANGO	000518112	11	2	2022	155	20.00	Si	Aprobado	Si	Si	Si
324	1553240000722	RANGO	000737447	11	2	2022	155	20.00	Si	Aprobado	Si	Si	Si
324	1553240000718	RANGO	000518144	11	2	2022	155	20.00	Si	Aprobado	No	Si	No
324	1603240000586	RANGO	000517068	11	2	2022	160	19.00	Si	Aprobado	No	Si	Si
324	1643240000538	RANGO	000746078	11	2	2022	164	19.00	Si	Aprobado	No	Si	Si
324	1753240001052	RANGO	000521273	11	2	2022	175	23.00	Si	Aprobado	No	Si	Si
324	1753240001048	RANGO	000738365	11	2	2022	175	23.00	Si	Aprobado	Si	Si	Si
324	1753240001050	RANGO	000754444	11	2	2022	175	23.00	Si	Aprobado	No	Si	Si
324	1753240001049	RANGO	000754246	11	2	2022	175	23.00	Si	Aprobado	No	Si	Si
324	1753240001047	RANGO	000745729	11	2	2022	175	23.00	Si	Aprobado	No	Si	Si
324	1753240001051	RANGO	100736904	11	2	2022	175	23.00	Si	Aprobado	No	Si	Si
324	1753240001053	RANGO	000521047	11	2	2022	175	23.00	Si	Aprobado	No	Si	Si
324	1853240000373	RANGO	000684013	11	2	2022	185	19.00	Si	Aprobado	No	Si	Si
324	1853240000370	RANGO	000753649	11	2	2022	185	19.00	Si	Aprobado	No	Si	Si
324	1853240000371	RANGO	000742386	11	2	2022	185	19.00	Si	Aprobado	No	Si	Si
324	1853240000372	RANGO	000525094	11	2	2022	185	19.00	Si	Aprobado	No	Si	Si
324	1903240000634	RANGO	000524227	11	2	2022	190	19.00	Si	Aprobado	Si	Si	Si
324	1903240000633	RANGO	000524259	11	2	2022	190	19.00	Si	Aprobado	Si	Si	Si
324	1903240000635	RANGO	000524150	11	2	2022	190	19.00	Si	Aprobado	Si	Si	Si
324	1923240000513	RANGO	000738912	11	2	2022	192	19.00	Si	Aprobado	No	Si	Si
324	1923240000514	RANGO	000980118	11	2	2022	192	19.00	Si	Aprobado	No	Si	Si
324	1963240000255	RANGO	000750560	11	2	2022	196	19.00	Si	Aprobado	Si	Si	Si
324	1973240000285	RANGO	000750689	11	2	2022	197	18.00	Si	Aprobado	No	Si	Si
324	1973240000288	RANGO	000682392	11	2	2022	197	18.00	Si	Aprobado	No	Si	Si
324	1973240000286	RANGO	000739343	11	2	2022	197	18.00	Si	Aprobado	No	Si	Si
324	1973240000287	RANGO	000742059	11	2	2022	197	18.00	Si	Aprobado	No	Si	Si
324	2003240000471	RANGO	000530050	11	2	2022	200	23.00	Si	Aprobado	No	Si	Si
324	2053240000273	RANGO	000531210	11	2	2022	205	19.00	Si	Aprobado	No	Si	Si
324	2053240000274	RANGO	000755693	11	2	2022	205	19.00	Si	Aprobado	No	Si	Si
324	2103240000271	RANGO	000741503	11	2	2022	210	19.00	Si	Aprobado	No	Si	Si
324	2163240000398	RANGO	000533154	11	2	2022	216	19.00	Si	Aprobado	No	Si	Si
324	2163240000399	RANGO	000753263	11	2	2022	216	22.00	Si	Aprobado	No	Si	Si
324	2173240000311	RANGO	000534396	11	2	2022	217	21.00	Si	Aprobado	No	Si	Si
324	2173240000310	RANGO	000534174	11	2	2022	217	19.00	Si	Aprobado	No	Si	Si
324	2253240000370	RANGO	000736340	11	2	2022	225	19.00	Si	Aprobado	No	Si	Si
324	2253240000369	FUERA RANGO	000680151	11	2	2022	225	24.00	Si	Aprobado	No	Si	Si
324	2303240000262	RANGO	000537202	11	2	2022	230	20.00	Si	Aprobado	No	Si	Si
324	2303240000263	RANGO	000734038	11	2	2022	230	20.00	Si	Aprobado	No	Si	No
324	2353240000160	RANGO	000735683	11	2	2022	235	19.00	Si	Aprobado	No	Si	Si
324	2503240000532	RANGO	000731142	11	2	2022	250	19.00	Si	Aprobado	No	Si	Si
324	2503240000533	RANGO	000539186	11	2	2022	250	19.00	Si	Aprobado	No	Si	Si
324	2503240000534	RANGO	000800319	11	2	2022	250	19.00	Si	Aprobado	Si	Si	Si
324	2503240000535	RANGO	000539149	11	2	2022	250	19.00	Si	Aprobado	Si	Si	Si
324	2503240000531	RANGO	000539248	11	2	2022	250	19.00	Si	Aprobado	No	Si	Si
324	2603240000305	RANGO	000684123	11	2	2022	260	19.00	Si	Aprobado	No	Si	Si
324	2603240000304	RANGO	000852029	11	2	2022	260	19.00	Si	Aprobado	No	Si	Si
324	2653240000258	RANGO	000542253	11	2	2022	265	19.00	Si	Aprobado	No	Si	Si
324	2703240001186	RANGO	000543287	11	2	2022	270	19.00	Si	Aprobado	No	Si	Si
324	2703240001185	RANGO	000543151	11	2	2022	270	19.00	Si	Aprobado	No	Si	Si
239	1002390001167	RANGO	000367439	11	2	2022	100	21.00	Si	Aprobado	Si	Si	Si
239	1002390001164	RANGO	000361154	11	2	2022	100	21.00	Si	Aprobado	Si	Si	Si
239	1002390001165	RANGO	000363036	11	2	2022	100	21.00	Si	Aprobado	Si	Si	Si
239	1002390001163	RANGO	000361291	11	2	2022	100	21.00	Si	Aprobado	Si	Si	Si
239	1002390001166	RANGO	000363171	11	2	2022	100	21.00	Si	Aprobado	Si	Si	Si
239	2002390000589	RANGO	100372864	11	2	2022	200	15.00	Si	Aprobado	Si	Si	Si
239	3002390002504	RANGO	000367668	11	2	2022	300	21.00	Si	Aprobado	Si	Si	Si
239	3002390002503	RANGO	000400002	11	2	2022	300	21.00	Si	Aprobado	Si	Si	Si
239	3002390002505	RANGO	000362595	11	2	2022	300	21.00	Si	Aprobado	Si	Si	Si
239	3002390002499	RANGO	000000017	11	2	2022	300	21.00	Si	Aprobado	Si	Si	Si
239	3002390002500	RANGO	000362507	11	2	2022	300	21.00	Si	Aprobado	Si	Si	Si
239	3002390002501	RANGO	000912149	11	2	2022	300	21.00	Si	Aprobado	Si	Si	Si
239	3002390002502	RANGO	000910035	11	2	2022	300	21.00	Si	Aprobado	No	Si	No
239	4002390001750	RANGO	000364072	11	2	2022	400	20.00	Si	Aprobado	No	Si	Si
239	4002390001751	RANGO	000913069	11	2	2022	400	20.00	Si	Aprobado	No	Si	Si
239	4002390001755	RANGO	100374164	11	2	2022	400	20.00	Si	Aprobado	No	Si	Si
239	4002390001753	RANGO	000361159	11	2	2022	400	20.00	Si	Aprobado	No	Si	Si
239	4002390001757	RANGO	000367106	11	2	2022	400	20.00	Si	Aprobado	No	Si	Si
239	4002390001754	RANGO	000914015	11	2	2022	400	20.00	Si	Aprobado	No	Si	Si
239	4002390001756	RANGO	000913107	11	2	2022	400	20.00	Si	Aprobado	No	Si	Si
239	4002390001752	RANGO	000914048	11	2	2022	400	20.00	Si	Aprobado	No	Si	Si
239	4002390001758	RANGO	100373140	11	2	2022	400	20.00	Si	Aprobado	No	Si	Si
239	4002390001749	RANGO	000360265	11	2	2022	400	20.00	Si	Aprobado	No	Si	Si
239	5002390002676	RANGO	000914164	11	2	2022	500	20.00	Si	Aprobado	No	Si	Si
239	6002390001959	RANGO	000915062	11	2	2022	600	23.00	Si	Aprobado	Si	Si	Si
239	6002390001950	RANGO	000915115	11	2	2022	600	23.00	Si	Aprobado	Si	Si	Si
239	6002390001946	RANGO	000003003	11	2	2022	600	20.00	Si	Aprobado	Si	Si	Si
239	6002390001956	RANGO	000361306	11	2	2022	600	23.00	Si	Aprobado	Si	Si	Si
239	6002390001955	RANGO	000361230	11	2	2022	600	23.00	Si	Aprobado	Si	Si	Si
239	6002390001948	RANGO	000372370	11	2	2022	600	23.00	Si	Aprobado	Si	Si	Si
239	6002390001952	RANGO	000915088	11	2	2022	600	23.00	Si	Aprobado	Si	Si	Si
239	6002390001949	RANGO	000915043	11	2	2022	600	23.00	Si	Aprobado	Si	Si	Si
239	6002390001958	RANGO	100372241	11	2	2022	600	23.00	Si	Aprobado	Si	Si	Si
239	6002390001947	RANGO	000360740	11	2	2022	600	22.00	Si	Aprobado	Si	Si	Si
239	6002390001945	RANGO	000366160	11	2	2022	600	21.00	Si	Aprobado	Si	Si	Si
239	6002390001953	RANGO	000915084	11	2	2022	600	23.00	Si	Aprobado	Si	Si	Si
239	6002390001957	RANGO	000362978	11	2	2022	600	23.00	Si	Aprobado	Si	Si	Si
239	6002390001954	RANGO	000360767	11	2	2022	600	23.00	Si	Aprobado	Si	Si	Si
239	6002390001951	RANGO	000915119	11	2	2022	600	23.00	Si	Aprobado	Si	Si	Si
128	1001280000295	RANGO	000930383	11	2	2022	100	23.00	Si	Aprobado	No	Si	No
128	1001280000294	FUERA RANGO	000930377	11	2	2022	100	25.00	Si	Aprobado	No	Si	No
128	4001280000464	RANGO	200003476	11	2	2022	400	19.00	Si	Aprobado	No	Si	Si
128	5501280000299	FUERA RANGO	000936224	11	2	2022	550	24.00	Si	Aprobado	Si	Si	Si
128	6501280000982	RANGO	200003162	11	2	2022	650	19.00	Si	Aprobado	No	Si	Si
128	9001280001217	RANGO	000942192	11	2	2022	900	19.00	Si	Aprobado	No	Si	Si
254	2002540000342	RANGO	000150054	11	2	2022	200	22.00	Si	Aprobado	Si	Si	Si
254	9602540000374	RANGO	000151944	11	2	2022	960	21.00	Si	Aprobado	Si	Si	Si
168	1031680000713	RANGO	000511789	11	2	2022	103	18.00	Si	Aprobado	No	Si	No
168	4001680000211	RANGO	000511819	11	2	2022	400	18.00	Si	Aprobado	No	Si	Si
168	5001680000414	RANGO	000904119	11	2	2022	500	18.00	Si	Aprobado	No	Si	Si
168	7001680000207	RANGO	000908148	11	2	2022	700	18.00	Si	Aprobado	Si	Si	Si
168	8001680000143	RANGO	100008583	11	2	2022	800	18.00	Si	Aprobado	Si	Si	Si
168	8001680000144	RANGO	000513016	11	2	2022	800	18.00	Si	Aprobado	Si	Si	Si
253	0102530000982	RANGO	000002231	11	2	2022	010	18.00	Si	Aprobado	No	Si	Si
253	0102530000983	RANGO	000900207	11	2	2022	010	18.00	Si	Aprobado	No	Si	Si
253	0302530002432	RANGO	000143118	11	2	2022	030	18.00	Si	Aprobado	No	Si	Si
253	0402530002094	RANGO	000013238	11	2	2022	040	18.00	Si	Aprobado	Si	Si	Si
253	0402530002093	RANGO	000903081	11	2	2022	040	18.00	Si	Aprobado	Si	Si	Si
253	0402530002097	RANGO	000863367	11	2	2022	040	18.00	Si	Aprobado	Si	Si	Si
253	0402530002100	RANGO	000903183	11	2	2022	040	18.00	Si	Aprobado	No	Si	Si
253	0402530002098	RANGO	000903094	11	2	2022	040	18.00	Si	Aprobado	Si	Si	Si
253	0402530002099	RANGO	000010457	11	2	2022	040	18.00	Si	Aprobado	Si	Si	Si
253	0402530002096	RANGO	000143731	11	2	2022	040	18.00	Si	Aprobado	No	Si	Si
253	0402530002092	RANGO	000002888	11	2	2022	040	18.00	Si	Aprobado	Si	Si	Si
253	0402530002095	RANGO	000144046	11	2	2022	040	18.00	Si	Aprobado	Si	Si	Si
253	1202530001319	RANGO	000906246	11	2	2022	120	18.00	Si	Aprobado	Si	Si	Si
253	3002530002127	RANGO	000015435	11	2	2022	300	18.00	Si	Aprobado	Si	Si	Si
253	3002530002125	RANGO	000000303	11	2	2022	300	18.00	Si	Aprobado	Si	Si	Si
253	3002530002124	RANGO	000012641	11	2	2022	300	18.00	Si	Aprobado	Si	Si	Si
253	3002530002128	RANGO	000014329	11	2	2022	300	18.00	Si	Aprobado	Si	Si	Si
253	3002530002123	RANGO	000909078	11	2	2022	300	18.00	Si	Aprobado	Si	Si	Si
253	3002530002122	RANGO	000144556	11	2	2022	300	18.00	Si	Aprobado	Si	Si	Si
253	3002530002126	RANGO	000142762	11	2	2022	300	18.00	Si	Aprobado	Si	Si	Si
253	3202530001508	RANGO	000885151	11	2	2022	320	16.00	Si	Aprobado	No	Si	No
253	3202530001507	RANGO	000001707	11	2	2022	320	18.00	Si	Aprobado	Si	Si	Si
253	3302530000590	RANGO	000912133	11	2	2022	330	18.00	Si	Aprobado	No	Si	Si
253	3302530000589	RANGO	000013790	11	2	2022	330	18.00	Si	Aprobado	No	Si	Si
253	3602530001351	RANGO	000916093	11	2	2022	360	18.00	Si	Aprobado	Si	Si	Si
253	3602530001350	RANGO	000146836	11	2	2022	360	18.00	Si	Aprobado	Si	Si	Si
253	3802530001881	RANGO	000016816	11	2	2022	380	18.00	Si	Aprobado	No	Si	No
253	5202530001250	RANGO	000015097	11	2	2022	520	18.00	Si	Aprobado	No	Si	No
253	5202530001248	RANGO	000951179	11	2	2022	520	18.00	Si	Aprobado	Si	Si	Si
253	5202530001249	RANGO	000892179	11	2	2022	520	18.00	Si	Aprobado	Si	Si	Si
253	5702530001055	RANGO	000146023	11	2	2022	570	18.00	Si	Aprobado	Si	Si	Si
253	6002530002684	FUERA RANGO	000016737	11	2	2022	600	19.00	Si	Aprobado	Si	Si	Si
253	6002530002680	RANGO	000149060	11	2	2022	600	18.00	Si	Aprobado	Si	Si	Si
253	6002530002682	FUERA RANGO	000014108	11	2	2022	600	19.00	Si	Aprobado	Si	Si	Si
253	6002530002678	RANGO	000149033	11	2	2022	600	18.00	Si	Aprobado	Si	Si	Si
253	6002530002683	FUERA RANGO	000016806	11	2	2022	600	19.00	Si	Aprobado	Si	Si	Si
253	6002530002679	RANGO	000012807	11	2	2022	600	18.00	Si	Aprobado	No	Si	Si
253	6002530002681	RANGO	000005776	11	2	2022	600	18.00	Si	Aprobado	Si	Si	Si
253	7502530000477	RANGO	000147529	11	2	2022	750	18.00	Si	Aprobado	Si	Si	Si
253	7502530000478	RANGO	000009643	11	2	2022	750	18.00	Si	Aprobado	Si	Si	Si
202	10202020001872	FUERA RANGO	138193	11	2	2022	1020	28.00	Si	Aprobado	Si	Si	Si
202	10202020001874	FUERA RANGO	129874	11	2	2022	1020	29.00	Si	Aprobado	Si	Si	Si
202	10202020001873	FUERA RANGO	132724	11	2	2022	1020	28.00	Si	Aprobado	Si	Si	Si
202	10312020004632	RANGO	123779	11	2	2022	1031	19.00	Si	Aprobado	No	Si	No
202	10312020004636	RANGO	123786	11	2	2022	1031	23.00	Si	Aprobado	Si	Si	Si
202	10312020004637	RANGO	100156	11	2	2022	1031	23.00	Si	Aprobado	Si	Si	Si
202	10312020004641	RANGO	134365	11	2	2022	1031	23.00	Si	Aprobado	Si	Si	Si
202	10312020004635	RANGO	123800	11	2	2022	1031	23.00	Si	Aprobado	Si	Si	Si
202	10312020004640	RANGO	134357	11	2	2022	1031	23.00	Si	Aprobado	Si	Si	Si
202	10312020004638	RANGO	123814	11	2	2022	1031	23.00	Si	Aprobado	Si	Si	Si
202	10312020004633	RANGO	100530	11	2	2022	1031	19.00	Si	Aprobado	Si	Si	Si
202	10312020004639	RANGO	138025	11	2	2022	1031	23.00	Si	Aprobado	No	Si	No
202	10322020002540	RANGO	101868	11	2	2022	1032	15.00	Si	Aprobado	No	Si	Si
202	10322020002539	FUERA RANGO	136347	11	2	2022	1032	28.00	Si	Aprobado	Si	Si	Si
202	10382020001159	RANGO	135912	11	2	2022	1038	22.00	Si	Aprobado	No	Si	Si
202	10382020001158	RANGO	101837	11	2	2022	1038	22.00	Si	Aprobado	No	Si	Si
202	10382020001161	RANGO	134389	11	2	2022	1038	23.00	Si	Aprobado	No	Si	Si
202	10382020001160	RANGO	135905	11	2	2022	1038	21.00	Si	Aprobado	No	Si	Si
202	10392020000683	FUERA RANGO	124202	11	2	2022	1039	28.00	Si	Aprobado	Si	Si	Si
202	10392020000684	FUERA RANGO	137377	11	2	2022	1039	28.00	Si	Aprobado	Si	Si	Si
202	10392020000688	FUERA RANGO	128915	11	2	2022	1039	25.00	Si	Aprobado	No	Si	Si
202	10392020000685	FUERA RANGO	124245	11	2	2022	1039	28.00	Si	Aprobado	Si	Si	Si
202	10392020000686	FUERA RANGO	137368	11	2	2022	1039	28.00	Si	Aprobado	No	Si	Si
202	10392020000681	FUERA RANGO	138881	11	2	2022	1039	25.00	Si	Aprobado	No	Si	Si
202	10392020000682	FUERA RANGO	128941	11	2	2022	1039	28.00	Si	Aprobado	No	Si	No
202	10392020000687	FUERA RANGO	137369	11	2	2022	1039	25.00	Si	Aprobado	No	Si	Si
202	10642020003791	RANGO	106786	11	2	2022	1064	19.00	Si	Aprobado	Si	Si	Si
202	10642020003790	RANGO	173310	11	2	2022	1064	20.00	Si	Aprobado	Si	Si	Si
202	10642020003794	RANGO	103774	11	2	2022	1064	20.00	Si	Aprobado	Si	Si	Si
202	10642020003796	RANGO	114779	11	2	2022	1064	19.00	Si	Aprobado	No	Si	No
202	10642020003797	RANGO	186713	11	2	2022	1064	19.00	Si	Aprobado	Si	Si	Si
202	10642020003793	RANGO	171673	11	2	2022	1064	19.00	Si	Aprobado	Si	Si	Si
202	10642020003795	RANGO	102634	11	2	2022	1064	20.00	Si	Aprobado	Si	Si	Si
202	10642020003798	RANGO	175369	11	2	2022	1064	19.00	Si	Aprobado	Si	Si	Si
202	10642020003792	RANGO	111354	11	2	2022	1064	20.00	Si	Aprobado	Si	Si	Si
202	10672020000978	FUERA RANGO	137191	11	2	2022	1067	25.00	Si	Aprobado	No	Si	Si
202	10672020000976	FUERA RANGO	137171	11	2	2022	1067	25.00	Si	Aprobado	No	Si	Si
202	10672020000975	RANGO	138911	11	2	2022	1067	23.00	Si	Aprobado	No	Si	Si
202	10672020000977	FUERA RANGO	137184	11	2	2022	1067	25.00	Si	Aprobado	No	Si	Si
202	10692020003382	RANGO	118584	11	2	2022	1069	20.00	Si	Aprobado	No	Si	Si
202	10692020003380	RANGO	103258	11	2	2022	1069	19.00	Si	Aprobado	Si	Si	Si
202	10692020003381	RANGO	100962	11	2	2022	1069	19.00	Si	Aprobado	Si	Si	Si
202	10712020001118	RANGO	134176	11	2	2022	1071	19.00	Si	Aprobado	No	Si	Si
202	10712020001115	RANGO	123356	11	2	2022	1071	19.00	Si	Aprobado	No	Si	Si
202	10712020001114	RANGO	123381	11	2	2022	1071	19.00	Si	Aprobado	No	Si	Si
202	10712020001116	RANGO	137130	11	2	2022	1071	19.00	Si	Aprobado	No	Si	Si
202	10712020001117	FUERA RANGO	137113	11	2	2022	1071	25.00	Si	Aprobado	Si	Si	Si
202	10772020000885	RANGO	123597	11	2	2022	1077	19.00	Si	Aprobado	No	Si	Si
202	10772020000884	RANGO	114831	11	2	2022	1077	19.00	Si	Aprobado	No	Si	Si
202	10832020003850	RANGO	133375	11	2	2022	1083	20.00	Si	Aprobado	Si	Si	Si
202	10832020003851	RANGO	132747	11	2	2022	1083	19.00	Si	Aprobado	Si	Si	Si
202	10832020003852	RANGO	132847	11	2	2022	1083	18.00	Si	Aprobado	Si	Si	Si
202	10832020003849	RANGO	137770	11	2	2022	1083	18.00	Si	Aprobado	Si	Si	Si
202	11012020001832	FUERA RANGO	123187	11	2	2022	1101	29.00	Si	Aprobado	No	Si	Si
202	11012020001833	FUERA RANGO	119890	11	2	2022	1101	29.00	Si	Aprobado	No	Si	No
202	11012020001831	RANGO	133513	11	2	2022	1101	19.00	Si	Aprobado	Si	Si	Si
202	11022020001847	RANGO	132583	11	2	2022	1102	19.00	Si	Aprobado	No	Si	Si
202	11022020001855	FUERA RANGO	125880	11	2	2022	1102	28.00	Si	Aprobado	Si	Si	Si
202	11022020001856	FUERA RANGO	131614	11	2	2022	1102	28.00	Si	Aprobado	Si	Si	Si
202	11022020001845	FUERA RANGO	124555	11	2	2022	1102	28.00	Si	Aprobado	No	Si	No
202	11022020001854	FUERA RANGO	129829	11	2	2022	1102	28.00	Si	Aprobado	Si	Si	Si
202	11022020001853	FUERA RANGO	147098	11	2	2022	1102	28.00	Si	Aprobado	Si	Si	Si
202	11022020001857	FUERA RANGO	137690	11	2	2022	1102	28.00	Si	Aprobado	Si	Si	Si
202	11022020001852	FUERA RANGO	131605	11	2	2022	1102	28.00	Si	Aprobado	Si	Si	Si
202	11022020001846	FUERA RANGO	132670	11	2	2022	1102	28.00	Si	Aprobado	Si	Si	Si
202	11022020001851	FUERA RANGO	137680	11	2	2022	1102	28.00	Si	Aprobado	Si	Si	Si
202	11032020003010	RANGO	114190	11	2	2022	1103	10.00	Si	Aprobado	No	Si	Si
202	11032020003012	RANGO	116328	11	2	2022	1103	19.00	Si	Aprobado	Si	Si	Si
202	11032020003014	RANGO	131658	11	2	2022	1103	19.00	Si	Aprobado	No	Si	Si
202	11032020003013	RANGO	170626	11	2	2022	1103	20.00	Si	Aprobado	No	Si	Si
202	11032020003015	RANGO	106770	11	2	2022	1103	19.00	Si	Aprobado	Si	Si	Si
202	11032020003011	RANGO	106732	11	2	2022	1103	19.00	Si	Aprobado	No	Si	Si
202	1342020002293	RANGO	138739	11	2	2022	134	23.00	Si	Aprobado	Si	Si	Si
202	1342020002295	RANGO	136203	11	2	2022	134	21.00	Si	Aprobado	No	Si	Si
202	1392020001045	FUERA RANGO	138945	11	2	2022	139	29.00	Si	Aprobado	No	Si	Si
202	1392020001046	RANGO	130070	11	2	2022	139	19.00	Si	Aprobado	No	Si	Si
202	1392020001047	RANGO	132585	11	2	2022	139	19.00	Si	Aprobado	No	Si	Si
202	1492020003227	RANGO	112756	11	2	2022	149	22.00	Si	Aprobado	No	Si	Si
202	1492020003231	RANGO	138570	11	2	2022	149	23.00	Si	Aprobado	No	Si	Si
202	1492020003228	RANGO	132588	11	2	2022	149	22.00	Si	Aprobado	Si	Si	Si
202	1492020003224	RANGO	122290	11	2	2022	149	22.00	Si	Aprobado	No	Si	Si
202	1492020003230	RANGO	102861	11	2	2022	149	22.00	Si	Aprobado	Si	Si	Si
202	1492020003229	RANGO	137067	11	2	2022	149	22.00	Si	Aprobado	No	Si	Si
202	1492020003232	RANGO	136841	11	2	2022	149	22.00	Si	Aprobado	No	Si	Si
202	1492020003225	RANGO	116618	11	2	2022	149	22.00	Si	Aprobado	No	Si	Si
202	1492020003226	RANGO	139524	11	2	2022	149	22.00	Si	Aprobado	No	Si	Si
202	1692020001305	FUERA RANGO	123182	11	2	2022	169	26.00	Si	Aprobado	No	Si	No
202	1692020001302	FUERA RANGO	119851	11	2	2022	169	28.00	Si	Aprobado	Si	Si	Si
202	1692020001299	RANGO	135679	11	2	2022	169	19.00	Si	Aprobado	No	Si	Si
202	1692020001303	FUERA RANGO	129942	11	2	2022	169	28.00	Si	Aprobado	Si	Si	Si
202	1692020001301	FUERA RANGO	129911	11	2	2022	169	29.00	Si	Aprobado	Si	Si	Si
202	2032020001023	RANGO	201370	11	2	2022	203	19.00	Si	Aprobado	Si	Si	Si
202	20342020001168	RANGO	253389	11	2	2022	2034	22.00	Si	Aprobado	Si	Si	Si
202	20362020002707	RANGO	250777	11	2	2022	2036	20.00	Si	Aprobado	Si	Si	Si
202	20362020002708	FUERA RANGO	250448	11	2	2022	2036	23.00	Si	Aprobado	Si	Si	Si
202	2052020001788	RANGO	286439	11	2	2022	205	22.00	Si	Aprobado	Si	Si	Si
202	2052020001789	RANGO	286417	11	2	2022	205	22.00	Si	Aprobado	No	Si	Si
202	20562020000744	FUERA RANGO	253631	11	2	2022	2056	30.00	Si	Aprobado	Si	Si	Si
202	20562020000745	FUERA RANGO	253680	11	2	2022	2056	30.00	Si	Aprobado	No	Si	No
202	20562020000743	RANGO	253677	11	2	2022	2056	24.00	Si	Aprobado	Si	Si	Si
202	2072020001027	RANGO	251279	11	2	2022	207	18.00	Si	Aprobado	Si	Si	Si
202	21032020001538	RANGO	224497	11	2	2022	2103	19.00	Si	Aprobado	Si	Si	Si
202	21032020001539	RANGO	289112	11	2	2022	2103	19.00	Si	Aprobado	Si	Si	Si
202	21052020000492	RANGO	204701	11	2	2022	2105	21.00	Si	Aprobado	No	Si	Si
202	21052020000494	FUERA RANGO	253126	11	2	2022	2105	25.00	Si	Aprobado	No	Si	Si
202	21052020000493	RANGO	253108	11	2	2022	2105	20.00	Si	Aprobado	No	Si	Si
202	21062020000607	FUERA RANGO	251821	11	2	2022	2106	25.00	Si	Aprobado	No	Si	Si
202	21062020000606	RANGO	230732	11	2	2022	2106	19.00	Si	Aprobado	Si	Si	Si
202	21062020000605	RANGO	252705	11	2	2022	2106	23.00	Si	Aprobado	No	Si	Si
202	21072020003344	RANGO	247102	11	2	2022	2107	22.00	Si	Aprobado	Si	Si	Si
202	21072020003340	RANGO	230923	11	2	2022	2107	26.00	Si	Aprobado	Si	Si	Si
202	21072020003337	RANGO	230474	11	2	2022	2107	22.00	Si	Aprobado	No	Si	No
202	21072020003341	RANGO	229114	11	2	2022	2107	24.00	Si	Aprobado	Si	Si	Si
202	21072020003342	RANGO	254127	11	2	2022	2107	23.00	Si	Aprobado	Si	Si	Si
202	21072020003338	RANGO	230942	11	2	2022	2107	22.00	Si	Aprobado	Si	Si	Si
202	21072020003343	RANGO	251545	11	2	2022	2107	22.00	Si	Aprobado	Si	Si	Si
202	21072020003345	RANGO	230911	11	2	2022	2107	22.00	Si	Aprobado	Si	Si	Si
202	21072020003339	RANGO	248654	11	2	2022	2107	22.00	Si	Aprobado	Si	Si	Si
202	2172020002175	RANGO	257691	11	2	2022	217	19.00	Si	Aprobado	No	Si	Si
202	2172020002174	RANGO	257687	11	2	2022	217	19.00	Si	Aprobado	No	Si	Si
202	2232020003934	RANGO	230482	11	2	2022	223	19.00	Si	Aprobado	No	Si	Si
202	2232020003935	RANGO	230389	11	2	2022	223	19.00	Si	Aprobado	No	Si	Si
202	2352020000969	RANGO	274827	11	2	2022	235	20.00	Si	Aprobado	Si	Si	Si
202	2352020000970	RANGO	201878	11	2	2022	235	19.00	Si	Aprobado	No	Si	Si
202	2352020000971	RANGO	224873	11	2	2022	235	19.00	Si	Aprobado	No	Si	Si
202	2432020001402	RANGO	231638	11	2	2022	243	26.00	Si	Aprobado	Si	Si	Si
202	2432020001401	RANGO	251676	11	2	2022	243	24.00	Si	Aprobado	Si	Si	Si
202	2432020001400	RANGO	248119	11	2	2022	243	24.00	Si	Aprobado	No	Si	No
202	2642020002705	RANGO	202612	11	2	2022	264	19.00	Si	Aprobado	No	Si	Si
202	2642020002706	RANGO	249480	11	2	2022	264	19.00	Si	Aprobado	Si	Si	Si
202	2792020002590	RANGO	252916	11	2	2022	279	20.00	Si	Aprobado	Si	Si	Si
202	2792020002591	RANGO	252911	11	2	2022	279	20.00	Si	Aprobado	Si	Si	Si
202	2802020003264	RANGO	204416	11	2	2022	280	22.00	Si	Aprobado	Si	Si	Si
202	2802020003263	RANGO	248276	11	2	2022	280	22.00	Si	Aprobado	Si	Si	Si
202	2802020003266	RANGO	228796	11	2	2022	280	24.00	Si	Aprobado	Si	Si	Si
202	2802020003261	RANGO	229588	11	2	2022	280	23.00	Si	Aprobado	Si	Si	Si
202	2802020003267	RANGO	284892	11	2	2022	280	23.00	Si	Aprobado	Si	Si	Si
202	2802020003270	RANGO	202200	11	2	2022	280	22.00	Si	Aprobado	No	Si	No
202	2802020003265	RANGO	228792	11	2	2022	280	24.00	Si	Aprobado	Si	Si	Si
202	2802020003271	RANGO	252545	11	2	2022	280	24.00	Si	Aprobado	Si	Si	Si
202	2802020003262	RANGO	225514	11	2	2022	280	22.00	Si	Aprobado	Si	Si	Si
202	2802020003259	RANGO	229941	11	2	2022	280	22.00	Si	Aprobado	Si	Si	Si
202	2802020003260	RANGO	202073	11	2	2022	280	24.00	Si	Aprobado	Si	Si	Si
202	2802020003269	RANGO	229567	11	2	2022	280	23.00	Si	Aprobado	Si	Si	Si
202	2882020001344	RANGO	289427	11	2	2022	288	19.00	Si	Aprobado	Si	Si	Si
202	30022020001390	RANGO	252728	11	2	2022	3002	20.00	Si	Aprobado	Si	Si	Si
202	30022020001388	RANGO	252079	11	2	2022	3002	25.00	Si	Aprobado	Si	Si	Si
202	30022020001389	RANGO	248677	11	2	2022	3002	20.00	Si	Aprobado	Si	Si	Si
202	30022020001392	RANGO	262840	11	2	2022	3002	20.00	Si	Aprobado	Si	Si	Si
202	30022020001391	RANGO	252276	11	2	2022	3002	20.00	Si	Aprobado	Si	Si	Si
202	30022020001387	RANGO	227617	11	2	2022	3002	24.00	Si	Aprobado	Si	Si	Si
202	4162020002271	RANGO	402124	11	2	2022	416	19.00	Si	Aprobado	No	Si	Si
202	4162020002273	RANGO	401230	11	2	2022	416	19.00	Si	Aprobado	No	Si	Si
202	4162020002272	RANGO	401360	11	2	2022	416	19.00	Si	Aprobado	No	Si	Si
202	4162020002268	RANGO	401180	11	2	2022	416	19.00	Si	Aprobado	No	Si	Si
202	4162020002267	RANGO	401913	11	2	2022	416	19.00	Si	Aprobado	No	Si	Si
202	4162020002274	RANGO	401796	11	2	2022	416	19.00	Si	Aprobado	No	Si	Si
202	4162020002275	RANGO	400990	11	2	2022	416	19.00	Si	Aprobado	No	Si	Si
202	4162020002270	RANGO	401597	11	2	2022	416	19.00	Si	Aprobado	No	Si	Si
202	4162020002269	RANGO	401194	11	2	2022	416	19.00	Si	Aprobado	No	Si	Si
202	4312020000569	RANGO	400915	11	2	2022	431	14.50	Si	Aprobado	No	Si	Si
202	4482020005715	FUERA RANGO	410035	11	2	2022	448	27.00	Si	Aprobado	Si	Si	Si
202	4482020005718	RANGO	410039	11	2	2022	448	20.00	Si	Aprobado	Si	Si	Si
202	4482020005717	FUERA RANGO	404164	11	2	2022	448	27.00	Si	Aprobado	Si	Si	Si
202	4482020005716	FUERA RANGO	404807	11	2	2022	448	27.00	Si	Aprobado	Si	Si	Si
202	4542020005464	RANGO	402514	11	2	2022	454	21.00	Si	Aprobado	Si	Si	Si
202	4542020005463	FUERA RANGO	402517	11	2	2022	454	26.00	Si	Aprobado	Si	Si	Si
202	4542020005465	RANGO	402721	11	2	2022	454	20.00	Si	Aprobado	No	Si	Si
202	4552020004680	RANGO	405062	11	2	2022	455	21.00	Si	Aprobado	Si	Si	Si
202	4552020004679	FUERA RANGO	402357	11	2	2022	455	29.00	Si	Aprobado	Si	Si	Si
202	4552020004681	FUERA RANGO	405013	11	2	2022	455	27.00	Si	Aprobado	Si	Si	Si
202	4552020004682	FUERA RANGO	405008	11	2	2022	455	27.00	Si	Aprobado	Si	Si	Si
202	4552020004683	FUERA RANGO	406567	11	2	2022	455	27.00	Si	Aprobado	Si	Si	Si
202	5542020001635	RANGO	506564	11	2	2022	554	20.00	Si	Aprobado	Si	Si	Si
202	5542020001634	RANGO	505215	11	2	2022	554	20.00	Si	Aprobado	Si	Si	Si
202	5552020001311	RANGO	504461	11	2	2022	555	20.00	Si	Aprobado	Si	Si	Si
202	6252020002166	RANGO	136685	11	2	2022	625	23.00	Si	Aprobado	No	Si	Si
202	6252020002169	FUERA RANGO	133716	11	2	2022	625	25.00	Si	Aprobado	No	Si	Si
202	6252020002167	FUERA RANGO	101038	11	2	2022	625	24.00	Si	Aprobado	Si	Si	Si
202	6252020002173	FUERA RANGO	188491	11	2	2022	625	29.00	Si	Aprobado	Si	Si	Si
202	6252020002174	FUERA RANGO	129716	11	2	2022	625	29.00	Si	Aprobado	Si	Si	Si
202	6332020004463	RANGO	128553	11	2	2022	633	22.00	Si	Aprobado	Si	Si	Si
202	6332020004456	RANGO	139504	11	2	2022	633	23.00	Si	Aprobado	Si	Si	Si
202	6332020004467	RANGO	110102	11	2	2022	633	22.00	Si	Aprobado	Si	Si	Si
202	6332020004455	RANGO	137315	11	2	2022	633	22.00	Si	Aprobado	Si	Si	Si
202	6332020004461	RANGO	139501	11	2	2022	633	22.00	Si	Aprobado	No	Si	No
202	6332020004459	RANGO	126048	11	2	2022	633	23.00	Si	Aprobado	Si	Si	Si
202	6332020004464	RANGO	139057	11	2	2022	633	22.00	Si	Aprobado	No	Si	No
202	6332020004460	RANGO	139047	11	2	2022	633	22.00	Si	Aprobado	No	Si	No
202	6332020004462	RANGO	102314	11	2	2022	633	22.00	Si	Aprobado	No	Si	No
202	6332020004457	RANGO	139050	11	2	2022	633	22.00	Si	Aprobado	Si	Si	Si
202	6332020004465	RANGO	125060	11	2	2022	633	23.00	Si	Aprobado	Si	Si	Si
202	6332020004466	RANGO	134456	11	2	2022	633	22.00	Si	Aprobado	No	Si	No
202	6332020004454	RANGO	134825	11	2	2022	633	22.00	Si	Aprobado	Si	Si	Si
202	6332020004458	RANGO	138502	11	2	2022	633	23.00	Si	Aprobado	Si	Si	Si
202	6332020004453	RANGO	121562	11	2	2022	633	22.00	Si	Aprobado	Si	Si	Si
202	6352020005876	RANGO	170616	11	2	2022	635	22.00	Si	Aprobado	Si	Si	Si
202	6352020005870	RANGO	174210	11	2	2022	635	22.00	Si	Aprobado	Si	Si	Si
202	6352020005873	RANGO	115317	11	2	2022	635	22.00	Si	Aprobado	Si	Si	Si
202	6352020005874	RANGO	136078	11	2	2022	635	22.00	Si	Aprobado	Si	Si	Si
202	6352020005868	RANGO	125960	11	2	2022	635	22.00	Si	Aprobado	Si	Si	Si
202	6352020005872	RANGO	138359	11	2	2022	635	22.00	Si	Aprobado	Si	Si	Si
202	6352020005869	RANGO	148974	11	2	2022	635	22.00	Si	Aprobado	Si	Si	Si
202	6352020005875	RANGO	126895	11	2	2022	635	22.00	Si	Aprobado	Si	Si	Si
202	6352020005871	RANGO	136075	11	2	2022	635	22.00	Si	Aprobado	Si	Si	Si
202	6422020004385	RANGO	127259	11	2	2022	642	22.00	Si	Aprobado	Si	Si	Si
202	6422020004386	RANGO	181343	11	2	2022	642	20.00	Si	Aprobado	Si	Si	Si
202	6422020004387	RANGO	103619	11	2	2022	642	20.00	Si	Aprobado	Si	Si	Si
202	6442020005112	FUERA RANGO	127785	11	2	2022	644	30.00	Si	Aprobado	Si	Si	Si
202	6442020005113	RANGO	125824	11	2	2022	644	22.00	Si	Aprobado	Si	Si	Si
202	6472020001678	FUERA RANGO	135245	11	2	2022	647	28.00	Si	Aprobado	No	Si	No
202	6692020000630	FUERA RANGO	135052	11	2	2022	669	28.00	Si	Aprobado	Si	Si	Si
202	6692020000629	FUERA RANGO	102075	11	2	2022	669	29.00	Si	Aprobado	Si	Si	Si
202	6712020002019	RANGO	135152	11	2	2022	671	19.00	Si	Aprobado	No	Si	Si
202	6712020002017	FUERA RANGO	123213	11	2	2022	671	29.00	Si	Aprobado	Si	Si	Si
202	6712020002020	RANGO	120061	11	2	2022	671	19.00	Si	Aprobado	No	Si	Si
202	6712020002018	FUERA RANGO	120098	11	2	2022	671	28.00	Si	Aprobado	No	Si	No
202	6932020001627	RANGO	147843	11	2	2022	693	20.00	Si	Aprobado	Si	Si	Si
202	8012020000417	RANGO	128863	11	2	2022	801	19.00	Si	Aprobado	No	Si	Si
202	8352020006734	RANGO	253177	11	2	2022	835	26.00	Si	Aprobado	Si	Si	Si
202	8362020004896	FUERA RANGO	203364	11	2	2022	836	29.00	Si	Aprobado	Si	Si	Si
202	8362020004899	FUERA RANGO	249874	11	2	2022	836	29.00	Si	Aprobado	Si	Si	Si
202	8362020004900	FUERA RANGO	252123	11	2	2022	836	30.00	Si	Aprobado	No	Si	No
202	8362020004898	FUERA RANGO	247152	11	2	2022	836	29.00	Si	Aprobado	Si	Si	Si
202	8362020004902	RANGO	226374	11	2	2022	836	20.00	Si	Aprobado	Si	Si	Si
202	8362020004897	FUERA RANGO	229516	11	2	2022	836	29.00	Si	Aprobado	Si	Si	Si
202	8362020004901	RANGO	249868	11	2	2022	836	22.00	Si	Aprobado	Si	Si	Si
202	8382020002798	FUERA RANGO	222330	11	2	2022	838	31.00	Si	Aprobado	Si	Si	Si
202	8382020002799	FUERA RANGO	251990	11	2	2022	838	31.00	Si	Aprobado	Si	Si	Si
202	8412020001820	RANGO	226984	11	2	2022	841	22.00	Si	Aprobado	Si	Si	Si
202	8412020001819	RANGO	251462	11	2	2022	841	20.00	Si	Aprobado	Si	Si	Si
202	9142020001601	RANGO	231392	11	2	2022	914	19.00	Si	Aprobado	No	Si	Si
202	9142020001604	RANGO	230087	11	2	2022	914	19.00	Si	Aprobado	Si	Si	Si
202	9142020001600	RANGO	231414	11	2	2022	914	17.00	Si	Aprobado	No	Si	Si
202	9142020001603	RANGO	230198	11	2	2022	914	19.00	Si	Aprobado	No	Si	Si
202	9142020001602	RANGO	230143	11	2	2022	914	19.00	Si	Aprobado	Si	Si	Si
303	1503030002002	RANGO	000006886	11	2	2022	150	19.00	Si	Aprobado	No	Si	Si
303	1503030002000	RANGO	200008900	11	2	2022	150	19.00	Si	Aprobado	No	Si	Si
303	1503030002003	RANGO	000920128	11	2	2022	150	19.00	Si	Aprobado	No	Si	Si
303	1503030001999	RANGO	000920217	11	2	2022	150	19.00	Si	Aprobado	No	Si	Si
303	1503030002001	RANGO	000006885	11	2	2022	150	19.00	Si	Aprobado	No	Si	Si
303	2503030001098	RANGO	000005693	11	2	2022	250	19.00	Si	Aprobado	No	Si	Si
303	2503030001097	RANGO	000005723	11	2	2022	250	19.00	Si	Aprobado	No	Si	Si
303	2503030001096	RANGO	000947121	11	2	2022	250	19.00	Si	Aprobado	No	Si	Si
303	3003030001182	RANGO	000935159	11	2	2022	300	19.00	Si	Aprobado	Si	Si	Si
303	3003030001181	RANGO	000636342	11	2	2022	300	19.00	Si	Aprobado	Si	Si	Si
303	3003030001184	RANGO	200009775	11	2	2022	300	19.00	Si	Aprobado	No	Si	Si
303	3003030001185	RANGO	000011097	11	2	2022	300	19.00	Si	Aprobado	No	Si	Si
303	3003030001183	RANGO	000006803	11	2	2022	300	19.00	Si	Aprobado	No	Si	Si
303	3103030001306	RANGO	000934194	11	2	2022	310	19.00	Si	Aprobado	No	Si	Si
303	3103030001305	RANGO	000934113	11	2	2022	310	19.00	Si	Aprobado	No	Si	Si
303	3303030001755	RANGO	000936136	11	2	2022	330	19.00	Si	Aprobado	Si	Si	Si
303	3303030001757	RANGO	000706515	11	2	2022	330	19.00	Si	Aprobado	No	Si	Si
303	3303030001756	RANGO	000004666	11	2	2022	330	19.00	Si	Aprobado	No	Si	Si
303	3303030001758	RANGO	000936032	11	2	2022	330	19.00	Si	Aprobado	No	Si	Si
303	3403030001629	RANGO	000937079	11	2	2022	340	19.00	Si	Aprobado	Si	Si	Si
303	3403030001627	RANGO	000937123	11	2	2022	340	19.00	Si	Aprobado	Si	Si	Si
303	3403030001631	RANGO	000951304	11	2	2022	340	19.00	Si	Aprobado	Si	Si	Si
303	3403030001628	RANGO	000005026	11	2	2022	340	19.00	Si	Aprobado	Si	Si	Si
303	3403030001630	RANGO	000914039	11	2	2022	340	19.00	Si	Aprobado	Si	Si	Si
303	3503030000878	RANGO	000938179	11	2	2022	350	19.00	Si	Aprobado	Si	Si	Si
303	3503030000877	RANGO	000006042	11	2	2022	350	19.00	Si	Aprobado	No	Si	Si
303	3603030001744	RANGO	200007103	11	2	2022	360	19.00	Si	Aprobado	Si	Si	Si
303	3603030001745	RANGO	200010903	11	2	2022	360	19.00	Si	Aprobado	Si	Si	Si
303	3603030001747	RANGO	000939125	11	2	2022	360	19.00	Si	Aprobado	Si	Si	Si
303	3603030001746	RANGO	000939115	11	2	2022	360	19.00	Si	Aprobado	Si	Si	Si
303	4103030000825	RANGO	000950049	11	2	2022	410	20.00	Si	Aprobado	No	Si	Si
303	4103030000824	RANGO	200009277	11	2	2022	410	19.00	Si	Aprobado	No	Si	Si
303	4103030000826	RANGO	000010032	11	2	2022	410	19.00	Si	Aprobado	No	Si	Si
303	4203030000895	RANGO	000720004	11	2	2022	420	19.00	Si	Aprobado	No	Si	Si
303	4203030000896	RANGO	000921146	11	2	2022	420	19.00	Si	Aprobado	No	Si	Si
303	4303030000593	RANGO	000923243	11	2	2022	430	19.00	Si	Aprobado	No	Si	Si
303	4303030000594	RANGO	000923042	11	2	2022	430	19.00	Si	Aprobado	No	Si	Si
303	4303030000592	RANGO	000923044	11	2	2022	430	15.00	Si	Aprobado	Si	Si	Si
303	4303030000595	RANGO	000923202	11	2	2022	430	19.00	Si	Aprobado	No	Si	Si
303	4403030000136	RANGO	000638738	11	2	2022	440	19.00	Si	Aprobado	Si	Si	Si
303	4503030000571	RANGO	000951151	11	2	2022	450	16.00	Si	Aprobado	Si	Si	Si
303	4503030000572	RANGO	000633504	11	2	2022	450	16.00	Si	Aprobado	No	Si	Si
303	4503030000570	RANGO	000951577	11	2	2022	450	15.00	Si	Aprobado	No	Si	Si
303	4603030001391	RANGO	000700070	11	2	2022	460	19.00	Si	Aprobado	No	Si	Si
303	4703030001592	RANGO	000005667	11	2	2022	470	19.00	Si	Aprobado	Si	Si	Si
303	4703030001590	RANGO	000630214	11	2	2022	470	19.00	Si	Aprobado	No	Si	Si
303	4703030001593	RANGO	000942269	11	2	2022	470	19.00	Si	Aprobado	Si	Si	Si
303	4703030001591	RANGO	000942136	11	2	2022	470	19.00	Si	Aprobado	No	Si	Si
303	4803030000250	RANGO	200010627	11	2	2022	480	21.00	Si	Aprobado	Si	Si	Si
303	5003030001128	RANGO	000008874	11	2	2022	500	19.00	Si	Aprobado	No	Si	Si
303	5003030001129	RANGO	000925133	11	2	2022	500	19.00	Si	Aprobado	No	Si	Si
303	6503030000391	RANGO	000926219	11	2	2022	650	19.00	Si	Aprobado	No	Si	Si
303	7003030000307	RANGO	000928180	11	2	2022	700	19.00	Si	Aprobado	No	Si	No
303	7503030001110	RANGO	000009099	11	2	2022	750	19.00	Si	Aprobado	Si	Si	Si
303	7503030001109	RANGO	000009341	11	2	2022	750	19.00	Si	Aprobado	No	Si	Si
303	7503030001111	RANGO	000009026	11	2	2022	750	19.00	Si	Aprobado	Si	Si	Si
303	7503030001112	RANGO	000009024	11	2	2022	750	19.00	Si	Aprobado	No	Si	Si
303	7503030001113	RANGO	000009300	11	2	2022	750	19.00	Si	Aprobado	No	Si	Si
303	7503030001108	RANGO	000005044	11	2	2022	750	19.00	Si	Aprobado	Si	Si	Si
303	8003030000504	RANGO	000630076	11	2	2022	800	21.00	Si	Aprobado	Si	Si	Si
303	8003030000503	RANGO	200010672	11	2	2022	800	19.00	Si	Aprobado	No	Si	Si
303	8503030000961	RANGO	000933216	11	2	2022	850	19.00	Si	Aprobado	No	Si	Si
303	8503030000960	RANGO	000933058	11	2	2022	850	19.00	Si	Aprobado	Si	Si	Si
303	8503030000959	RANGO	000007750	11	2	2022	850	19.00	Si	Aprobado	No	Si	Si
303	9003030000445	RANGO	000931227	11	2	2022	900	19.00	Si	Aprobado	No	Si	Si
303	9003030000443	RANGO	200009842	11	2	2022	900	21.00	Si	Aprobado	No	Si	Si
140	1101400000039	RANGO	000260392	11	2	2022	110	18.00	Si	Aprobado	Si	Si	Si
140	2001400000193	RANGO	000910141	11	2	2022	200	18.00	Si	Aprobado	Si	Si	Si
140	2001400000194	RANGO	000263272	11	2	2022	200	18.00	Si	Aprobado	Si	Si	Si
140	2001400000195	RANGO	000915038	11	2	2022	200	18.00	Si	Aprobado	Si	Si	Si
140	4001400000312	RANGO	000902015	11	2	2022	400	19.00	Si	Aprobado	No	Si	Si
140	4001400000313	RANGO	100265317	11	2	2022	400	18.00	Si	Aprobado	No	Si	Si
140	4001400000315	RANGO	100265719	11	2	2022	400	21.00	Si	Aprobado	No	Si	Si
140	5000000000092	RANGO	000909036	11	2	2022	500	18.00	Si	Aprobado	No	Si	Si
140	9101400001579	RANGO	000261616	11	2	2022	910	18.00	Si	Aprobado	No	Si	Si
140	9101400001575	RANGO	000261282	11	2	2022	910	18.00	Si	Aprobado	No	Si	Si
140	9101400001574	RANGO	000261575	11	2	2022	910	19.00	Si	Aprobado	No	Si	Si
140	9101400001577	RANGO	000261687	11	2	2022	910	22.00	Si	Aprobado	No	Si	Si
140	9101400001578	RANGO	000261157	11	2	2022	910	22.00	Si	Aprobado	No	Si	Si
140	9101400001573	RANGO	000261280	11	2	2022	910	18.00	Si	Aprobado	No	Si	Si
140	9101400001576	RANGO	000261267	11	2	2022	910	18.00	Si	Aprobado	No	Si	Si
140	9201400000691	RANGO	100263979	11	2	2022	920	20.00	Si	Aprobado	Si	Si	Si
140	9201400000690	RANGO	100265101	11	2	2022	920	18.00	Si	Aprobado	No	Si	Si
121	1201210000978	RANGO	000931065	11	2	2022	120	18.00	Si	Aprobado	Si	Si	Si
121	1201210000979	RANGO	000460786	11	2	2022	120	19.00	Si	Aprobado	Si	Si	Si
121	1201210000980	RANGO	000931070	11	2	2022	120	19.00	Si	Aprobado	Si	Si	Si
121	1701210001748	RANGO	000935116	11	2	2022	170	22.00	Si	Aprobado	Si	Si	Si
121	1701210001749	RANGO	000468370	11	2	2022	170	20.00	Si	Aprobado	Si	Si	Si
121	1701210001745	RANGO	100895519	11	2	2022	170	19.00	Si	Aprobado	Si	Si	Si
121	1701210001746	RANGO	200000137	11	2	2022	170	20.00	Si	Aprobado	Si	Si	Si
121	1701210001744	RANGO	100895165	11	2	2022	170	21.00	Si	Aprobado	Si	Si	Si
121	1701210001747	RANGO	000935109	11	2	2022	170	19.00	Si	Aprobado	Si	Si	Si
121	1701210001743	RANGO	000935090	11	2	2022	170	22.00	Si	Aprobado	No	Si	Si
121	1851210000298	RANGO	000937131	11	2	2022	185	23.00	Si	Aprobado	Si	Si	Si
121	1851210000297	RANGO	100895925	11	2	2022	185	23.00	Si	Aprobado	Si	Si	Si
121	1901210000128	RANGO	000009088	11	2	2022	190	23.00	Si	Aprobado	Si	Si	Si
121	2201210000316	RANGO	000471904	11	2	2022	220	19.00	Si	Aprobado	Si	Si	Si
121	2501210000325	RANGO	000471307	11	2	2022	250	20.00	Si	Aprobado	Si	Si	Si
121	3001210000401	RANGO	000942172	11	2	2022	300	19.00	Si	Aprobado	Si	Si	Si
121	3501210000374	RANGO	000943134	11	2	2022	350	19.00	Si	Aprobado	Si	Si	Si
121	5001210000478	RANGO	000950049	11	2	2022	500	22.00	Si	Aprobado	Si	Si	Si
121	5001210000479	RANGO	000463964	11	2	2022	500	22.00	Si	Aprobado	Si	Si	Si
121	7001210000213	RANGO	000463408	11	2	2022	700	19.00	Si	Aprobado	Si	Si	Si
121	7001210000214	RANGO	000948181	11	2	2022	700	19.00	Si	Aprobado	Si	Si	Si
121	7501210001001	RANGO	000949092	11	2	2022	750	20.00	Si	Aprobado	Si	Si	Si
121	7501210001000	RANGO	000949261	11	2	2022	750	20.00	Si	Aprobado	Si	Si	Si
121	8001210001049	RANGO	000468037	11	2	2022	800	21.00	Si	Aprobado	Si	Si	Si
